2022-02-15 00:47:02,897-INFO-logger.py-root-日志信息：===登录用例：账号或密码错误登录===
2022-02-15 00:47:15,043-INFO-logger.py-root-日志信息：等待元素('xpath', '//*[@name="loginKey"]')可见
2022-02-15 00:47:15,105-INFO-logger.py-root-日志信息：等待时长为-1 day, 23:59:59.937735
2022-02-15 00:47:27,547-INFO-logger.py-root-日志信息：===登录用例：账号或密码错误登录===
