2022-02-15 00:52:19,985-INFO-logger.py-root-日志信息：===登录用例：账号或密码错误登录===
2022-02-15 00:52:32,202-INFO-logger.py-root-日志信息：等待元素('xpath', '//*[@name="loginKey"]')可见
2022-02-15 00:52:32,218-INFO-logger.py-root-日志信息：等待时长为-1 day, 23:59:59.984424
2022-02-15 00:52:44,594-INFO-logger.py-root-日志信息：===登录用例：账号或密码错误登录===
