[32mINFO    [0m root:logger.py:40 ===登录用例：账号或密码错误登录===
[32mINFO    [0m root:logger.py:40 等待元素('xpath', '//*[@name="loginKey"]')可见
[32mINFO    [0m root:logger.py:40 等待时长为-1 day, 23:59:59.937735
[32mINFO    [0m root:logger.py:40 ===登录用例：账号或密码错误登录===